%YAML 1.1
%TAG !u! tag:unity3d.com,2011:
--- !u!114 &11400000
MonoBehaviour:
  m_ObjectHideFlags: 0
  m_CorrespondingSourceObject: {fileID: 0}
  m_PrefabInstance: {fileID: 0}
  m_PrefabAsset: {fileID: 0}
  m_GameObject: {fileID: 0}
  m_Enabled: 1
  m_EditorHideFlags: 0
  m_Script: {fileID: 11500000, guid: 70d6a4ee4fea810489b13e747adba82b, type: 3}
  m_Name: Tempered
  m_EditorClassIdentifier: 
  Weathers:
  - {fileID: 11400000, guid: ad3a7172a6780404d9eb0cb3c53850db, type: 2}
  - {fileID: 11400000, guid: 618ceea9d4ddc924abf530d50ad137c5, type: 2}
  MinTemperature: 0
  MaxTemperature: 30
  MaxWindSpeed: 0
  PreviewColor: {r: 0, g: 1, b: 0.0543108, a: 0}
