%YAML 1.1
%TAG !u! tag:unity3d.com,2011:
--- !u!114 &11400000
MonoBehaviour:
  m_ObjectHideFlags: 0
  m_CorrespondingSourceObject: {fileID: 0}
  m_PrefabInstance: {fileID: 0}
  m_PrefabAsset: {fileID: 0}
  m_GameObject: {fileID: 0}
  m_Enabled: 1
  m_EditorHideFlags: 0
  m_Script: {fileID: 11500000, guid: a78ac60d82b515e43aeaace5cacbd806, type: 3}
  m_Name: TropicalRain
  m_EditorClassIdentifier: 
  Effect: {fileID: 3488459687399121761, guid: 396ac2b7e49e46649bacd0ab29914406, type: 3}
  Exposure: 1.1
