%YAML 1.1
%TAG !u! tag:unity3d.com,2011:
--- !u!114 &1
MonoBehaviour:
  m_ObjectHideFlags: 61
  m_CorrespondingSourceObject: {fileID: 0}
  m_PrefabInstance: {fileID: 0}
  m_PrefabAsset: {fileID: 0}
  m_GameObject: {fileID: 0}
  m_Enabled: 1
  m_EditorHideFlags: 0
  m_Script: {fileID: 11500000, guid: 63a2978a97e4fc04cb9d905947216f3d, type: 3}
  m_Name: 
  m_EditorClassIdentifier: 
  version: 1
  m_DefaultScenePrefabSaved: {fileID: 4893056312182120781, guid: 456add49751747b49bb25d230365f2ef,
    type: 3}
  m_DefaultDXRScenePrefabSaved: {fileID: 0}
  m_ProjectSettingFolderPath: HDRPDefaultResources
  m_WizardPopupAtStart: 0
  m_WizardActiveTab: 0
  m_PackageVersionForMaterials: 7.1.8
